$ stat --format '%N %f' branches commits commits-by-day commits-by-month tags
branches 41ed
commits 41ed
commits-by-day 41ed
commits-by-month 41ed
tags 41ed
$ stat not_existing
stat: cannot stat 'not_existing': No such file or directory
$ stat not_existing/1
stat: cannot stat 'not_existing/1': No such file or directory
