$ stat --format '%N %s %f %Y' commits/8ae619bc794fdad0cb34de138b95f8c9d9ec7dcd
commits/8ae619bc794fdad0cb34de138b95f8c9d9ec7dcd 10 41ed 1567931570
$ stat --format '%N %s %f %Y' commits/8ae619bc794fdad0cb34de138b95f8c9d9ec7dcd/author commits/8ae619bc794fdad0cb34de138b95f8c9d9ec7dcd/body commits/8ae619bc794fdad0cb34de138b95f8c9d9ec7dcd/children commits/8ae619bc794fdad0cb34de138b95f8c9d9ec7dcd/committer commits/8ae619bc794fdad0cb34de138b95f8c9d9ec7dcd/files commits/8ae619bc794fdad0cb34de138b95f8c9d9ec7dcd/id commits/8ae619bc794fdad0cb34de138b95f8c9d9ec7dcd/message commits/8ae619bc794fdad0cb34de138b95f8c9d9ec7dcd/parents commits/8ae619bc794fdad0cb34de138b95f8c9d9ec7dcd/summary commits/8ae619bc794fdad0cb34de138b95f8c9d9ec7dcd/time
commits/8ae619bc794fdad0cb34de138b95f8c9d9ec7dcd/author 35 81a4 1567931570
commits/8ae619bc794fdad0cb34de138b95f8c9d9ec7dcd/body 1 81a4 1567931570
commits/8ae619bc794fdad0cb34de138b95f8c9d9ec7dcd/children 1 41ed 1567931570
commits/8ae619bc794fdad0cb34de138b95f8c9d9ec7dcd/committer 35 81a4 1567931570
commits/8ae619bc794fdad0cb34de138b95f8c9d9ec7dcd/files 1 41ed 1567931570
commits/8ae619bc794fdad0cb34de138b95f8c9d9ec7dcd/id 41 81a4 1567931570
commits/8ae619bc794fdad0cb34de138b95f8c9d9ec7dcd/message 15 81a4 1567931570
commits/8ae619bc794fdad0cb34de138b95f8c9d9ec7dcd/parents 0 41ed 1567931570
commits/8ae619bc794fdad0cb34de138b95f8c9d9ec7dcd/summary 15 81a4 1567931570
commits/8ae619bc794fdad0cb34de138b95f8c9d9ec7dcd/time 25 81a4 1567931570
